{
  "merchant": "pistor",
  "version": "1.0",
  "delivery_confirmation": [
    {
      "customer_key": "021984",
      "delivery_date": "2020-08-24",
      "delivery_method": "pistor-delivery",
      "timestamp": "2020-08-24T13:37:00Z",
      "line_items": [
        {
          "item_id": "M-47111-1",
          "concrete_sku": "4711",
          "packaging": "karton",
          "quantity": 1,
          "base_quantity": 1,
          "base_packaging_code": "becher",
          "packaging_base_quantity": 16,
          "base_price_quantity": 1,
          "base_price": 251000,
          "price": 4025000,
          "net_amount": 4025000,
          "tax_rate": 260000,
          "order_reference": "M-47111",
          "supplier_order_reference": "22552250"
        },
        {
          "item_id": "M-47111-2",
          "concrete_sku": "39622",
          "packaging": "karton",
          "quantity": 1,
          "base_packaging_code": "becher",
          "packaging_base_quantity": 6,
          "base_price_quantity": 1,
          "base_price": 622000,
          "price": 3732000,
          "net_amount": 3732000,
          "tax_rate": 260000,
          "order_reference": "M-47111",
          "supplier_order_reference": "22552250"
        },
        {
          "item_id": "M-47111-3",
          "concrete_sku": "002965",
          "packaging": "becher",
          "quantity": 2,
          "base_measurement_code": "KILO",
          "measurement_quantity": 2,
          "base_price_quantity": 1,
          "base_price": 522000,
          "price": 1044000,
          "net_amount": 2088000,
          "tax_rate": 260000,
          "order_reference": "M-47111",
          "supplier_order_reference": "22552250"
        },
        {
          "item_id": "M-47111-4",
          "concrete_sku": "044958",
          "packaging": "karton",
          "quantity": 15,
          "base_quantity": 1,
          "base_packaging_code": "rolle",
          "packaging_base_quantity": 72,
          "base_price_quantity": 100,
          "base_price": 5723000,
          "price": 4121000,
          "net_amount": 61815000,
          "tax_rate": 260000,
          "order_reference": "M-47111",
          "supplier_order_reference": "22552250"
        },
        {
          "item_id": "M-47111-5",
          "concrete_sku": "044959",
          "packaging": "karton",
          "quantity": 12,
          "base_price_quantity": 1,
          "base_price": 550000,
          "price": 7000000,
          "net_amount": 82000000,
          "tax_rate": 260000,
          "order_reference": "M-47111",
          "supplier_order_reference": "22552250",
          "delete": true
        }
      ]
    }
  ]
}
