{
  "merchant": "pistor",
  "version": "1.0",
  "product_price": [
    {
      "concrete_sku": "002965",
      "packaging": "karton",
      "required_quantity": 0,
      "base_price": 186000,
      "price": 8928000
    },
    {
      "concrete_sku": "002965",
      "packaging": "palette",
      "required_quantity": 0,
      "base_price": 167400,
      "price": 289267200
    },
    {
      "price_group": "PIS-199307",
      "concrete_sku": "002965",
      "packaging": "karton",
      "required_quantity": 0,
      "base_price": 176700,
      "price": 8481600
    },
    {
      "price_group": "PIS-199307",
      "concrete_sku": "002965",
      "packaging": "palette",
      "required_quantity": 0,
      "base_price": 159030,
      "price": 274803840,
      "strikethrough": {
        "base_price": 169030,
        "price": 224803840
      }
    },
    {
      "price_group": "PIS-399999",
      "concrete_sku": "022557",
      "packaging": "karton",
      "required_quantity": 0,
      "base_price": 1259000,
      "price": 12590000,
      "strikethrough": {
        "base_price": 169030,
        "price": 224803840,
        "delivery_start_date": "2022-07-20",
        "delivery_end_date": "2022-07-24",
        "order_start_date": "2022-07-19",
        "order_end_date": "2022-07-23"
      }
    },
    {
      "price_group": "PIS-399999",
      "concrete_sku": "022557",
      "packaging": "karton",
      "required_quantity": 39,
      "base_price": 1249000,
      "price": 12490000
    },
    {
      "price_group": "PIS-399999",
      "concrete_sku": "022557",
      "packaging": "karton",
      "required_quantity": 60,
      "base_price": 1239000,
      "price": 12390000
    }
  ]
}
